^C:\USERS\TEKIN-PC\DOCUMENTS\VISUAL STUDIO 2015\PROJECTS\FUZZYODEV1LAST\FUZZYODEV1LAST\STDAFX.CPP
/c /ZI /nologo /W3 /WX- /sdl /Od /Oy- /D WIN32 /D _DEBUG /D _CONSOLE /D _UNICODE /D UNICODE /Gm /EHsc /RTC1 /MDd /GS /fp:precise /Zc:wchar_t /Zc:forScope /Zc:inline /Yc"stdafx.h" /Fp"DEBUG\FUZZYODEV1LAST.PCH" /Fo"DEBUG\\" /Fd"DEBUG\VC140.PDB" /Gd /TP /analyze- C:\USERS\TEKIN-PC\DOCUMENTS\VISUAL STUDIO 2015\PROJECTS\FUZZYODEV1LAST\FUZZYODEV1LAST\STDAFX.CPP
^C:\USERS\TEKIN-PC\DOCUMENTS\VISUAL STUDIO 2015\PROJECTS\FUZZYODEV1LAST\FUZZYODEV1LAST\BEHAVIOUR.CPP
/c /ZI /nologo /W3 /WX- /sdl /Od /Oy- /D WIN32 /D _DEBUG /D _CONSOLE /D _UNICODE /D UNICODE /Gm /EHsc /RTC1 /MDd /GS /fp:precise /Zc:wchar_t /Zc:forScope /Zc:inline /Fo"DEBUG\\" /Fd"DEBUG\VC140.PDB" /Gd /TP /analyze- C:\USERS\TEKIN-PC\DOCUMENTS\VISUAL STUDIO 2015\PROJECTS\FUZZYODEV1LAST\FUZZYODEV1LAST\BEHAVIOUR.CPP
^C:\USERS\TEKIN-PC\DOCUMENTS\VISUAL STUDIO 2015\PROJECTS\FUZZYODEV1LAST\FUZZYODEV1LAST\FUZZYODEV1LAST.CPP
/c /ZI /nologo /W3 /WX- /sdl /Od /Oy- /D WIN32 /D _DEBUG /D _CONSOLE /D _UNICODE /D UNICODE /Gm /EHsc /RTC1 /MDd /GS /fp:precise /Zc:wchar_t /Zc:forScope /Zc:inline /Fo"DEBUG\\" /Fd"DEBUG\VC140.PDB" /Gd /TP /analyze- C:\USERS\TEKIN-PC\DOCUMENTS\VISUAL STUDIO 2015\PROJECTS\FUZZYODEV1LAST\FUZZYODEV1LAST\FUZZYODEV1LAST.CPP
^C:\USERS\TEKIN-PC\DOCUMENTS\VISUAL STUDIO 2015\PROJECTS\FUZZYODEV1LAST\FUZZYODEV1LAST\RULE.CPP
/c /ZI /nologo /W3 /WX- /sdl /Od /Oy- /D WIN32 /D _DEBUG /D _CONSOLE /D _UNICODE /D UNICODE /Gm /EHsc /RTC1 /MDd /GS /fp:precise /Zc:wchar_t /Zc:forScope /Zc:inline /Fo"DEBUG\\" /Fd"DEBUG\VC140.PDB" /Gd /TP /analyze- C:\USERS\TEKIN-PC\DOCUMENTS\VISUAL STUDIO 2015\PROJECTS\FUZZYODEV1LAST\FUZZYODEV1LAST\RULE.CPP
^C:\USERS\TEKIN-PC\DOCUMENTS\VISUAL STUDIO 2015\PROJECTS\FUZZYODEV1LAST\FUZZYODEV1LAST\RULEBASE.CPP
/c /ZI /nologo /W3 /WX- /sdl /Od /Oy- /D WIN32 /D _DEBUG /D _CONSOLE /D _UNICODE /D UNICODE /Gm /EHsc /RTC1 /MDd /GS /fp:precise /Zc:wchar_t /Zc:forScope /Zc:inline /Fo"DEBUG\\" /Fd"DEBUG\VC140.PDB" /Gd /TP /analyze- C:\USERS\TEKIN-PC\DOCUMENTS\VISUAL STUDIO 2015\PROJECTS\FUZZYODEV1LAST\FUZZYODEV1LAST\RULEBASE.CPP
^C:\USERS\TEKIN-PC\DOCUMENTS\VISUAL STUDIO 2015\PROJECTS\FUZZYODEV1LAST\FUZZYODEV1LAST\TRAPEZOID.CPP
/c /ZI /nologo /W3 /WX- /sdl /Od /Oy- /D WIN32 /D _DEBUG /D _CONSOLE /D _UNICODE /D UNICODE /Gm /EHsc /RTC1 /MDd /GS /fp:precise /Zc:wchar_t /Zc:forScope /Zc:inline /Fo"DEBUG\\" /Fd"DEBUG\VC140.PDB" /Gd /TP /analyze- C:\USERS\TEKIN-PC\DOCUMENTS\VISUAL STUDIO 2015\PROJECTS\FUZZYODEV1LAST\FUZZYODEV1LAST\TRAPEZOID.CPP
^C:\USERS\TEKIN-PC\DOCUMENTS\VISUAL STUDIO 2015\PROJECTS\FUZZYODEV1LAST\FUZZYODEV1LAST\TUPLE2.CPP
/c /ZI /nologo /W3 /WX- /sdl /Od /Oy- /D WIN32 /D _DEBUG /D _CONSOLE /D _UNICODE /D UNICODE /Gm /EHsc /RTC1 /MDd /GS /fp:precise /Zc:wchar_t /Zc:forScope /Zc:inline /Fo"DEBUG\\" /Fd"DEBUG\VC140.PDB" /Gd /TP /analyze- C:\USERS\TEKIN-PC\DOCUMENTS\VISUAL STUDIO 2015\PROJECTS\FUZZYODEV1LAST\FUZZYODEV1LAST\TUPLE2.CPP
^C:\USERS\TEKIN-PC\DOCUMENTS\VISUAL STUDIO 2015\PROJECTS\FUZZYODEV1LAST\FUZZYODEV1LAST\GLOBALVARIABLE.CPP
/c /ZI /nologo /W3 /WX- /sdl /Od /Oy- /D WIN32 /D _DEBUG /D _CONSOLE /D _UNICODE /D UNICODE /Gm /EHsc /RTC1 /MDd /GS /fp:precise /Zc:wchar_t /Zc:forScope /Zc:inline /Fo"DEBUG\\" /Fd"DEBUG\VC140.PDB" /Gd /TP /analyze- C:\USERS\TEKIN-PC\DOCUMENTS\VISUAL STUDIO 2015\PROJECTS\FUZZYODEV1LAST\FUZZYODEV1LAST\GLOBALVARIABLE.CPP
^G:\DERS2 DONEM 1 826519 MELEZ SISTEMLER\PROJECT1_YL\FUZZYODEV1LAST\FUZZYODEV1LAST\STDAFX.CPP
/c /ZI /nologo /W3 /WX- /sdl /Od /Oy- /D WIN32 /D _DEBUG /D _CONSOLE /D _UNICODE /D UNICODE /Gm /EHsc /RTC1 /MDd /GS /fp:precise /Zc:wchar_t /Zc:forScope /Zc:inline /Yc"stdafx.h" /Fp"DEBUG\FUZZYODEV1LAST.PCH" /Fo"DEBUG\\" /Fd"DEBUG\VC140.PDB" /Gd /TP /analyze- G:\DERS2 DONEM 1 826519 MELEZ SISTEMLER\PROJECT1_YL\FUZZYODEV1LAST\FUZZYODEV1LAST\STDAFX.CPP
^G:\DERS2 DONEM 1 826519 MELEZ SISTEMLER\PROJECT1_YL\FUZZYODEV1LAST\FUZZYODEV1LAST\BEHAVIOUR.CPP
/c /ZI /nologo /W3 /WX- /sdl /Od /Oy- /D WIN32 /D _DEBUG /D _CONSOLE /D _UNICODE /D UNICODE /Gm /EHsc /RTC1 /MDd /GS /fp:precise /Zc:wchar_t /Zc:forScope /Zc:inline /Fo"DEBUG\\" /Fd"DEBUG\VC140.PDB" /Gd /TP /analyze- G:\DERS2 DONEM 1 826519 MELEZ SISTEMLER\PROJECT1_YL\FUZZYODEV1LAST\FUZZYODEV1LAST\BEHAVIOUR.CPP
^G:\DERS2 DONEM 1 826519 MELEZ SISTEMLER\PROJECT1_YL\FUZZYODEV1LAST\FUZZYODEV1LAST\FUZZYODEV1LAST.CPP
/c /ZI /nologo /W3 /WX- /sdl /Od /Oy- /D WIN32 /D _DEBUG /D _CONSOLE /D _UNICODE /D UNICODE /Gm /EHsc /RTC1 /MDd /GS /fp:precise /Zc:wchar_t /Zc:forScope /Zc:inline /Fo"DEBUG\\" /Fd"DEBUG\VC140.PDB" /Gd /TP /analyze- G:\DERS2 DONEM 1 826519 MELEZ SISTEMLER\PROJECT1_YL\FUZZYODEV1LAST\FUZZYODEV1LAST\FUZZYODEV1LAST.CPP
^G:\DERS2 DONEM 1 826519 MELEZ SISTEMLER\PROJECT1_YL\FUZZYODEV1LAST\FUZZYODEV1LAST\RULE.CPP
/c /ZI /nologo /W3 /WX- /sdl /Od /Oy- /D WIN32 /D _DEBUG /D _CONSOLE /D _UNICODE /D UNICODE /Gm /EHsc /RTC1 /MDd /GS /fp:precise /Zc:wchar_t /Zc:forScope /Zc:inline /Fo"DEBUG\\" /Fd"DEBUG\VC140.PDB" /Gd /TP /analyze- G:\DERS2 DONEM 1 826519 MELEZ SISTEMLER\PROJECT1_YL\FUZZYODEV1LAST\FUZZYODEV1LAST\RULE.CPP
^G:\DERS2 DONEM 1 826519 MELEZ SISTEMLER\PROJECT1_YL\FUZZYODEV1LAST\FUZZYODEV1LAST\RULEBASE.CPP
/c /ZI /nologo /W3 /WX- /sdl /Od /Oy- /D WIN32 /D _DEBUG /D _CONSOLE /D _UNICODE /D UNICODE /Gm /EHsc /RTC1 /MDd /GS /fp:precise /Zc:wchar_t /Zc:forScope /Zc:inline /Fo"DEBUG\\" /Fd"DEBUG\VC140.PDB" /Gd /TP /analyze- G:\DERS2 DONEM 1 826519 MELEZ SISTEMLER\PROJECT1_YL\FUZZYODEV1LAST\FUZZYODEV1LAST\RULEBASE.CPP
^G:\DERS2 DONEM 1 826519 MELEZ SISTEMLER\PROJECT1_YL\FUZZYODEV1LAST\FUZZYODEV1LAST\TRAPEZOID.CPP
/c /ZI /nologo /W3 /WX- /sdl /Od /Oy- /D WIN32 /D _DEBUG /D _CONSOLE /D _UNICODE /D UNICODE /Gm /EHsc /RTC1 /MDd /GS /fp:precise /Zc:wchar_t /Zc:forScope /Zc:inline /Fo"DEBUG\\" /Fd"DEBUG\VC140.PDB" /Gd /TP /analyze- G:\DERS2 DONEM 1 826519 MELEZ SISTEMLER\PROJECT1_YL\FUZZYODEV1LAST\FUZZYODEV1LAST\TRAPEZOID.CPP
^G:\DERS2 DONEM 1 826519 MELEZ SISTEMLER\PROJECT1_YL\FUZZYODEV1LAST\FUZZYODEV1LAST\TUPLE2.CPP
/c /ZI /nologo /W3 /WX- /sdl /Od /Oy- /D WIN32 /D _DEBUG /D _CONSOLE /D _UNICODE /D UNICODE /Gm /EHsc /RTC1 /MDd /GS /fp:precise /Zc:wchar_t /Zc:forScope /Zc:inline /Fo"DEBUG\\" /Fd"DEBUG\VC140.PDB" /Gd /TP /analyze- G:\DERS2 DONEM 1 826519 MELEZ SISTEMLER\PROJECT1_YL\FUZZYODEV1LAST\FUZZYODEV1LAST\TUPLE2.CPP
