^C:\USERS\TEKIN-PC\DOCUMENTS\VISUAL STUDIO 2015\PROJECTS\FUZZYODEV1LAST\FUZZYODEV1LAST\STDAFX.CPP
C:\USERS\TEKIN-PC\DOCUMENTS\VISUAL STUDIO 2015\PROJECTS\FUZZYODEV1LAST\FUZZYODEV1LAST\DEBUG\FUZZYODEV1LAST.PCH
C:\USERS\TEKIN-PC\DOCUMENTS\VISUAL STUDIO 2015\PROJECTS\FUZZYODEV1LAST\FUZZYODEV1LAST\DEBUG\VC140.PDB
C:\USERS\TEKIN-PC\DOCUMENTS\VISUAL STUDIO 2015\PROJECTS\FUZZYODEV1LAST\FUZZYODEV1LAST\DEBUG\VC140.IDB
C:\USERS\TEKIN-PC\DOCUMENTS\VISUAL STUDIO 2015\PROJECTS\FUZZYODEV1LAST\FUZZYODEV1LAST\DEBUG\STDAFX.OBJ
^C:\USERS\TEKIN-PC\DOCUMENTS\VISUAL STUDIO 2015\PROJECTS\FUZZYODEV1LAST\FUZZYODEV1LAST\BEHAVIOUR.CPP|C:\USERS\TEKIN-PC\DOCUMENTS\VISUAL STUDIO 2015\PROJECTS\FUZZYODEV1LAST\FUZZYODEV1LAST\FUZZYODEV1LAST.CPP|C:\USERS\TEKIN-PC\DOCUMENTS\VISUAL STUDIO 2015\PROJECTS\FUZZYODEV1LAST\FUZZYODEV1LAST\RULE.CPP|C:\USERS\TEKIN-PC\DOCUMENTS\VISUAL STUDIO 2015\PROJECTS\FUZZYODEV1LAST\FUZZYODEV1LAST\RULEBASE.CPP|C:\USERS\TEKIN-PC\DOCUMENTS\VISUAL STUDIO 2015\PROJECTS\FUZZYODEV1LAST\FUZZYODEV1LAST\TRAPEZOID.CPP|C:\USERS\TEKIN-PC\DOCUMENTS\VISUAL STUDIO 2015\PROJECTS\FUZZYODEV1LAST\FUZZYODEV1LAST\TUPLE2.CPP
C:\USERS\TEKIN-PC\DOCUMENTS\VISUAL STUDIO 2015\PROJECTS\FUZZYODEV1LAST\FUZZYODEV1LAST\DEBUG\VC140.PDB
C:\USERS\TEKIN-PC\DOCUMENTS\VISUAL STUDIO 2015\PROJECTS\FUZZYODEV1LAST\FUZZYODEV1LAST\DEBUG\VC140.IDB
C:\USERS\TEKIN-PC\DOCUMENTS\VISUAL STUDIO 2015\PROJECTS\FUZZYODEV1LAST\FUZZYODEV1LAST\DEBUG\FUZZYODEV1LAST.OBJ
C:\USERS\TEKIN-PC\DOCUMENTS\VISUAL STUDIO 2015\PROJECTS\FUZZYODEV1LAST\FUZZYODEV1LAST\DEBUG\BEHAVIOUR.OBJ
C:\USERS\TEKIN-PC\DOCUMENTS\VISUAL STUDIO 2015\PROJECTS\FUZZYODEV1LAST\FUZZYODEV1LAST\DEBUG\RULE.OBJ
C:\USERS\TEKIN-PC\DOCUMENTS\VISUAL STUDIO 2015\PROJECTS\FUZZYODEV1LAST\FUZZYODEV1LAST\DEBUG\RULEBASE.OBJ
C:\USERS\TEKIN-PC\DOCUMENTS\VISUAL STUDIO 2015\PROJECTS\FUZZYODEV1LAST\FUZZYODEV1LAST\DEBUG\TRAPEZOID.OBJ
C:\USERS\TEKIN-PC\DOCUMENTS\VISUAL STUDIO 2015\PROJECTS\FUZZYODEV1LAST\FUZZYODEV1LAST\DEBUG\TUPLE2.OBJ
^C:\USERS\TEKIN-PC\DOCUMENTS\VISUAL STUDIO 2015\PROJECTS\FUZZYODEV1LAST\FUZZYODEV1LAST\BEHAVIOUR.CPP
C:\USERS\TEKIN-PC\DOCUMENTS\VISUAL STUDIO 2015\PROJECTS\FUZZYODEV1LAST\FUZZYODEV1LAST\DEBUG\VC140.PDB
C:\USERS\TEKIN-PC\DOCUMENTS\VISUAL STUDIO 2015\PROJECTS\FUZZYODEV1LAST\FUZZYODEV1LAST\DEBUG\VC140.IDB
C:\USERS\TEKIN-PC\DOCUMENTS\VISUAL STUDIO 2015\PROJECTS\FUZZYODEV1LAST\FUZZYODEV1LAST\DEBUG\BEHAVIOUR.OBJ
^C:\USERS\TEKIN-PC\DOCUMENTS\VISUAL STUDIO 2015\PROJECTS\FUZZYODEV1LAST\FUZZYODEV1LAST\FUZZYODEV1LAST.CPP
C:\USERS\TEKIN-PC\DOCUMENTS\VISUAL STUDIO 2015\PROJECTS\FUZZYODEV1LAST\FUZZYODEV1LAST\DEBUG\VC140.PDB
C:\USERS\TEKIN-PC\DOCUMENTS\VISUAL STUDIO 2015\PROJECTS\FUZZYODEV1LAST\FUZZYODEV1LAST\DEBUG\VC140.IDB
C:\USERS\TEKIN-PC\DOCUMENTS\VISUAL STUDIO 2015\PROJECTS\FUZZYODEV1LAST\FUZZYODEV1LAST\DEBUG\FUZZYODEV1LAST.OBJ
^C:\USERS\TEKIN-PC\DOCUMENTS\VISUAL STUDIO 2015\PROJECTS\FUZZYODEV1LAST\FUZZYODEV1LAST\RULE.CPP
C:\USERS\TEKIN-PC\DOCUMENTS\VISUAL STUDIO 2015\PROJECTS\FUZZYODEV1LAST\FUZZYODEV1LAST\DEBUG\VC140.PDB
^C:\USERS\TEKIN-PC\DOCUMENTS\VISUAL STUDIO 2015\PROJECTS\FUZZYODEV1LAST\FUZZYODEV1LAST\RULEBASE.CPP
C:\USERS\TEKIN-PC\DOCUMENTS\VISUAL STUDIO 2015\PROJECTS\FUZZYODEV1LAST\FUZZYODEV1LAST\DEBUG\VC140.PDB
C:\USERS\TEKIN-PC\DOCUMENTS\VISUAL STUDIO 2015\PROJECTS\FUZZYODEV1LAST\FUZZYODEV1LAST\DEBUG\VC140.IDB
C:\USERS\TEKIN-PC\DOCUMENTS\VISUAL STUDIO 2015\PROJECTS\FUZZYODEV1LAST\FUZZYODEV1LAST\DEBUG\RULEBASE.OBJ
^C:\USERS\TEKIN-PC\DOCUMENTS\VISUAL STUDIO 2015\PROJECTS\FUZZYODEV1LAST\FUZZYODEV1LAST\TRAPEZOID.CPP
C:\USERS\TEKIN-PC\DOCUMENTS\VISUAL STUDIO 2015\PROJECTS\FUZZYODEV1LAST\FUZZYODEV1LAST\DEBUG\VC140.PDB
^C:\USERS\TEKIN-PC\DOCUMENTS\VISUAL STUDIO 2015\PROJECTS\FUZZYODEV1LAST\FUZZYODEV1LAST\TUPLE2.CPP
C:\USERS\TEKIN-PC\DOCUMENTS\VISUAL STUDIO 2015\PROJECTS\FUZZYODEV1LAST\FUZZYODEV1LAST\DEBUG\VC140.PDB
^C:\USERS\TEKIN-PC\DOCUMENTS\VISUAL STUDIO 2015\PROJECTS\FUZZYODEV1LAST\FUZZYODEV1LAST\BEHAVIOUR.CPP|C:\USERS\TEKIN-PC\DOCUMENTS\VISUAL STUDIO 2015\PROJECTS\FUZZYODEV1LAST\FUZZYODEV1LAST\RULE.CPP|C:\USERS\TEKIN-PC\DOCUMENTS\VISUAL STUDIO 2015\PROJECTS\FUZZYODEV1LAST\FUZZYODEV1LAST\RULEBASE.CPP|C:\USERS\TEKIN-PC\DOCUMENTS\VISUAL STUDIO 2015\PROJECTS\FUZZYODEV1LAST\FUZZYODEV1LAST\TRAPEZOID.CPP|C:\USERS\TEKIN-PC\DOCUMENTS\VISUAL STUDIO 2015\PROJECTS\FUZZYODEV1LAST\FUZZYODEV1LAST\TUPLE2.CPP
C:\USERS\TEKIN-PC\DOCUMENTS\VISUAL STUDIO 2015\PROJECTS\FUZZYODEV1LAST\FUZZYODEV1LAST\DEBUG\VC140.PDB
C:\USERS\TEKIN-PC\DOCUMENTS\VISUAL STUDIO 2015\PROJECTS\FUZZYODEV1LAST\FUZZYODEV1LAST\DEBUG\VC140.IDB
^C:\USERS\TEKIN-PC\DOCUMENTS\VISUAL STUDIO 2015\PROJECTS\FUZZYODEV1LAST\FUZZYODEV1LAST\BEHAVIOUR.CPP|C:\USERS\TEKIN-PC\DOCUMENTS\VISUAL STUDIO 2015\PROJECTS\FUZZYODEV1LAST\FUZZYODEV1LAST\FUZZYODEV1LAST.CPP
C:\USERS\TEKIN-PC\DOCUMENTS\VISUAL STUDIO 2015\PROJECTS\FUZZYODEV1LAST\FUZZYODEV1LAST\DEBUG\VC140.PDB
C:\USERS\TEKIN-PC\DOCUMENTS\VISUAL STUDIO 2015\PROJECTS\FUZZYODEV1LAST\FUZZYODEV1LAST\DEBUG\VC140.IDB
C:\USERS\TEKIN-PC\DOCUMENTS\VISUAL STUDIO 2015\PROJECTS\FUZZYODEV1LAST\FUZZYODEV1LAST\DEBUG\FUZZYODEV1LAST.OBJ
C:\USERS\TEKIN-PC\DOCUMENTS\VISUAL STUDIO 2015\PROJECTS\FUZZYODEV1LAST\FUZZYODEV1LAST\DEBUG\BEHAVIOUR.OBJ
^C:\USERS\TEKIN-PC\DOCUMENTS\VISUAL STUDIO 2015\PROJECTS\FUZZYODEV1LAST\FUZZYODEV1LAST\BEHAVIOUR.CPP|C:\USERS\TEKIN-PC\DOCUMENTS\VISUAL STUDIO 2015\PROJECTS\FUZZYODEV1LAST\FUZZYODEV1LAST\FUZZYODEV1LAST.CPP|C:\USERS\TEKIN-PC\DOCUMENTS\VISUAL STUDIO 2015\PROJECTS\FUZZYODEV1LAST\FUZZYODEV1LAST\RULE.CPP|C:\USERS\TEKIN-PC\DOCUMENTS\VISUAL STUDIO 2015\PROJECTS\FUZZYODEV1LAST\FUZZYODEV1LAST\RULEBASE.CPP
C:\USERS\TEKIN-PC\DOCUMENTS\VISUAL STUDIO 2015\PROJECTS\FUZZYODEV1LAST\FUZZYODEV1LAST\DEBUG\VC140.PDB
C:\USERS\TEKIN-PC\DOCUMENTS\VISUAL STUDIO 2015\PROJECTS\FUZZYODEV1LAST\FUZZYODEV1LAST\DEBUG\VC140.IDB
C:\USERS\TEKIN-PC\DOCUMENTS\VISUAL STUDIO 2015\PROJECTS\FUZZYODEV1LAST\FUZZYODEV1LAST\DEBUG\BEHAVIOUR.OBJ
C:\USERS\TEKIN-PC\DOCUMENTS\VISUAL STUDIO 2015\PROJECTS\FUZZYODEV1LAST\FUZZYODEV1LAST\DEBUG\FUZZYODEV1LAST.OBJ
C:\USERS\TEKIN-PC\DOCUMENTS\VISUAL STUDIO 2015\PROJECTS\FUZZYODEV1LAST\FUZZYODEV1LAST\DEBUG\RULE.OBJ
C:\USERS\TEKIN-PC\DOCUMENTS\VISUAL STUDIO 2015\PROJECTS\FUZZYODEV1LAST\FUZZYODEV1LAST\DEBUG\RULEBASE.OBJ
^C:\USERS\TEKIN-PC\DOCUMENTS\VISUAL STUDIO 2015\PROJECTS\FUZZYODEV1LAST\FUZZYODEV1LAST\BEHAVIOUR.CPP|C:\USERS\TEKIN-PC\DOCUMENTS\VISUAL STUDIO 2015\PROJECTS\FUZZYODEV1LAST\FUZZYODEV1LAST\FUZZYODEV1LAST.CPP|C:\USERS\TEKIN-PC\DOCUMENTS\VISUAL STUDIO 2015\PROJECTS\FUZZYODEV1LAST\FUZZYODEV1LAST\GLOBALVARIABLE.CPP
C:\USERS\TEKIN-PC\DOCUMENTS\VISUAL STUDIO 2015\PROJECTS\FUZZYODEV1LAST\FUZZYODEV1LAST\DEBUG\VC140.PDB
C:\USERS\TEKIN-PC\DOCUMENTS\VISUAL STUDIO 2015\PROJECTS\FUZZYODEV1LAST\FUZZYODEV1LAST\DEBUG\VC140.IDB
C:\USERS\TEKIN-PC\DOCUMENTS\VISUAL STUDIO 2015\PROJECTS\FUZZYODEV1LAST\FUZZYODEV1LAST\DEBUG\BEHAVIOUR.OBJ
C:\USERS\TEKIN-PC\DOCUMENTS\VISUAL STUDIO 2015\PROJECTS\FUZZYODEV1LAST\FUZZYODEV1LAST\DEBUG\FUZZYODEV1LAST.OBJ
^C:\USERS\TEKIN-PC\DOCUMENTS\VISUAL STUDIO 2015\PROJECTS\FUZZYODEV1LAST\FUZZYODEV1LAST\GLOBALVARIABLE.CPP
C:\USERS\TEKIN-PC\DOCUMENTS\VISUAL STUDIO 2015\PROJECTS\FUZZYODEV1LAST\FUZZYODEV1LAST\DEBUG\VC140.PDB
C:\USERS\TEKIN-PC\DOCUMENTS\VISUAL STUDIO 2015\PROJECTS\FUZZYODEV1LAST\FUZZYODEV1LAST\DEBUG\VC140.IDB
C:\USERS\TEKIN-PC\DOCUMENTS\VISUAL STUDIO 2015\PROJECTS\FUZZYODEV1LAST\FUZZYODEV1LAST\DEBUG\GLOBALVARIABLE.OBJ
^C:\USERS\TEKIN-PC\DOCUMENTS\VISUAL STUDIO 2015\PROJECTS\FUZZYODEV1LAST\FUZZYODEV1LAST\BEHAVIOUR.CPP|C:\USERS\TEKIN-PC\DOCUMENTS\VISUAL STUDIO 2015\PROJECTS\FUZZYODEV1LAST\FUZZYODEV1LAST\FUZZYODEV1LAST.CPP|C:\USERS\TEKIN-PC\DOCUMENTS\VISUAL STUDIO 2015\PROJECTS\FUZZYODEV1LAST\FUZZYODEV1LAST\TRAPEZOID.CPP
C:\USERS\TEKIN-PC\DOCUMENTS\VISUAL STUDIO 2015\PROJECTS\FUZZYODEV1LAST\FUZZYODEV1LAST\DEBUG\VC140.PDB
C:\USERS\TEKIN-PC\DOCUMENTS\VISUAL STUDIO 2015\PROJECTS\FUZZYODEV1LAST\FUZZYODEV1LAST\DEBUG\VC140.IDB
C:\USERS\TEKIN-PC\DOCUMENTS\VISUAL STUDIO 2015\PROJECTS\FUZZYODEV1LAST\FUZZYODEV1LAST\DEBUG\BEHAVIOUR.OBJ
C:\USERS\TEKIN-PC\DOCUMENTS\VISUAL STUDIO 2015\PROJECTS\FUZZYODEV1LAST\FUZZYODEV1LAST\DEBUG\FUZZYODEV1LAST.OBJ
C:\USERS\TEKIN-PC\DOCUMENTS\VISUAL STUDIO 2015\PROJECTS\FUZZYODEV1LAST\FUZZYODEV1LAST\DEBUG\TRAPEZOID.OBJ
^C:\USERS\TEKIN-PC\DOCUMENTS\VISUAL STUDIO 2015\PROJECTS\FUZZYODEV1LAST\FUZZYODEV1LAST\BEHAVIOUR.CPP|C:\USERS\TEKIN-PC\DOCUMENTS\VISUAL STUDIO 2015\PROJECTS\FUZZYODEV1LAST\FUZZYODEV1LAST\FUZZYODEV1LAST.CPP|C:\USERS\TEKIN-PC\DOCUMENTS\VISUAL STUDIO 2015\PROJECTS\FUZZYODEV1LAST\FUZZYODEV1LAST\RULEBASE.CPP
C:\USERS\TEKIN-PC\DOCUMENTS\VISUAL STUDIO 2015\PROJECTS\FUZZYODEV1LAST\FUZZYODEV1LAST\DEBUG\VC140.PDB
C:\USERS\TEKIN-PC\DOCUMENTS\VISUAL STUDIO 2015\PROJECTS\FUZZYODEV1LAST\FUZZYODEV1LAST\DEBUG\VC140.IDB
C:\USERS\TEKIN-PC\DOCUMENTS\VISUAL STUDIO 2015\PROJECTS\FUZZYODEV1LAST\FUZZYODEV1LAST\DEBUG\BEHAVIOUR.OBJ
C:\USERS\TEKIN-PC\DOCUMENTS\VISUAL STUDIO 2015\PROJECTS\FUZZYODEV1LAST\FUZZYODEV1LAST\DEBUG\FUZZYODEV1LAST.OBJ
C:\USERS\TEKIN-PC\DOCUMENTS\VISUAL STUDIO 2015\PROJECTS\FUZZYODEV1LAST\FUZZYODEV1LAST\DEBUG\RULEBASE.OBJ
^G:\DERS2 DONEM 1 826519 MELEZ SISTEMLER\PROJECT1_YL\FUZZYODEV1LAST\FUZZYODEV1LAST\STDAFX.CPP
G:\DERS2 DONEM 1 826519 MELEZ SISTEMLER\PROJECT1_YL\FUZZYODEV1LAST\FUZZYODEV1LAST\DEBUG\FUZZYODEV1LAST.PCH
G:\DERS2 DONEM 1 826519 MELEZ SISTEMLER\PROJECT1_YL\FUZZYODEV1LAST\FUZZYODEV1LAST\DEBUG\VC140.PDB
G:\DERS2 DONEM 1 826519 MELEZ SISTEMLER\PROJECT1_YL\FUZZYODEV1LAST\FUZZYODEV1LAST\DEBUG\VC140.IDB
G:\DERS2 DONEM 1 826519 MELEZ SISTEMLER\PROJECT1_YL\FUZZYODEV1LAST\FUZZYODEV1LAST\DEBUG\STDAFX.OBJ
^G:\DERS2 DONEM 1 826519 MELEZ SISTEMLER\PROJECT1_YL\FUZZYODEV1LAST\FUZZYODEV1LAST\BEHAVIOUR.CPP|G:\DERS2 DONEM 1 826519 MELEZ SISTEMLER\PROJECT1_YL\FUZZYODEV1LAST\FUZZYODEV1LAST\FUZZYODEV1LAST.CPP|G:\DERS2 DONEM 1 826519 MELEZ SISTEMLER\PROJECT1_YL\FUZZYODEV1LAST\FUZZYODEV1LAST\RULE.CPP|G:\DERS2 DONEM 1 826519 MELEZ SISTEMLER\PROJECT1_YL\FUZZYODEV1LAST\FUZZYODEV1LAST\RULEBASE.CPP|G:\DERS2 DONEM 1 826519 MELEZ SISTEMLER\PROJECT1_YL\FUZZYODEV1LAST\FUZZYODEV1LAST\TRAPEZOID.CPP|G:\DERS2 DONEM 1 826519 MELEZ SISTEMLER\PROJECT1_YL\FUZZYODEV1LAST\FUZZYODEV1LAST\TUPLE2.CPP
G:\DERS2 DONEM 1 826519 MELEZ SISTEMLER\PROJECT1_YL\FUZZYODEV1LAST\FUZZYODEV1LAST\DEBUG\VC140.PDB
G:\DERS2 DONEM 1 826519 MELEZ SISTEMLER\PROJECT1_YL\FUZZYODEV1LAST\FUZZYODEV1LAST\DEBUG\VC140.IDB
G:\DERS2 DONEM 1 826519 MELEZ SISTEMLER\PROJECT1_YL\FUZZYODEV1LAST\FUZZYODEV1LAST\DEBUG\BEHAVIOUR.OBJ
G:\DERS2 DONEM 1 826519 MELEZ SISTEMLER\PROJECT1_YL\FUZZYODEV1LAST\FUZZYODEV1LAST\DEBUG\FUZZYODEV1LAST.OBJ
G:\DERS2 DONEM 1 826519 MELEZ SISTEMLER\PROJECT1_YL\FUZZYODEV1LAST\FUZZYODEV1LAST\DEBUG\RULE.OBJ
G:\DERS2 DONEM 1 826519 MELEZ SISTEMLER\PROJECT1_YL\FUZZYODEV1LAST\FUZZYODEV1LAST\DEBUG\RULEBASE.OBJ
G:\DERS2 DONEM 1 826519 MELEZ SISTEMLER\PROJECT1_YL\FUZZYODEV1LAST\FUZZYODEV1LAST\DEBUG\TRAPEZOID.OBJ
G:\DERS2 DONEM 1 826519 MELEZ SISTEMLER\PROJECT1_YL\FUZZYODEV1LAST\FUZZYODEV1LAST\DEBUG\TUPLE2.OBJ
^G:\DERS2 DONEM 1 826519 MELEZ SISTEMLER\PROJECT1_YL\FUZZYODEV1LAST\FUZZYODEV1LAST\BEHAVIOUR.CPP
G:\DERS2 DONEM 1 826519 MELEZ SISTEMLER\PROJECT1_YL\FUZZYODEV1LAST\FUZZYODEV1LAST\DEBUG\VC140.PDB
^G:\DERS2 DONEM 1 826519 MELEZ SISTEMLER\PROJECT1_YL\FUZZYODEV1LAST\FUZZYODEV1LAST\FUZZYODEV1LAST.CPP
G:\DERS2 DONEM 1 826519 MELEZ SISTEMLER\PROJECT1_YL\FUZZYODEV1LAST\FUZZYODEV1LAST\DEBUG\VC140.PDB
^G:\DERS2 DONEM 1 826519 MELEZ SISTEMLER\PROJECT1_YL\FUZZYODEV1LAST\FUZZYODEV1LAST\RULE.CPP
G:\DERS2 DONEM 1 826519 MELEZ SISTEMLER\PROJECT1_YL\FUZZYODEV1LAST\FUZZYODEV1LAST\DEBUG\VC140.PDB
^G:\DERS2 DONEM 1 826519 MELEZ SISTEMLER\PROJECT1_YL\FUZZYODEV1LAST\FUZZYODEV1LAST\RULEBASE.CPP
G:\DERS2 DONEM 1 826519 MELEZ SISTEMLER\PROJECT1_YL\FUZZYODEV1LAST\FUZZYODEV1LAST\DEBUG\VC140.PDB
^G:\DERS2 DONEM 1 826519 MELEZ SISTEMLER\PROJECT1_YL\FUZZYODEV1LAST\FUZZYODEV1LAST\TRAPEZOID.CPP
G:\DERS2 DONEM 1 826519 MELEZ SISTEMLER\PROJECT1_YL\FUZZYODEV1LAST\FUZZYODEV1LAST\DEBUG\VC140.PDB
^G:\DERS2 DONEM 1 826519 MELEZ SISTEMLER\PROJECT1_YL\FUZZYODEV1LAST\FUZZYODEV1LAST\TUPLE2.CPP
G:\DERS2 DONEM 1 826519 MELEZ SISTEMLER\PROJECT1_YL\FUZZYODEV1LAST\FUZZYODEV1LAST\DEBUG\VC140.PDB
